{
"page":2,
"per_page":6,
"total":12,
"total_pages":2,
"data":[
{"id":9,"email":"tobias.funke@reqres.in","firstname":"Tobias","lastname":"Funke","avatar":"https://reqres.in/img/faces/9-image.jpg"},
{"id":10,"email":"byron.fields@reqres.in","firstname":"Byron","lastname":"Fields","avatar":"https://reqres.in/img/faces/10-image.jpg"},
{"id":11,"email":"george.edwards@reqres.in","firstname":"George","lastname":"Edwards","avatar":"https://reqres.in/img/faces/11-image.jpg"},
{"id":12,"email":"rachel.howell@reqres.in","firstname":"Rachel","lastname":"Howell","avatar":"https://reqres.in/img/faces/12-image.jpg"}
],
"support":{
"url":"https://reqres.in/#support-heading",
"text":"To keep ReqRes free, contributions towards server costs are appreciated!"}
}